<svg width="18" height="12" viewBox="0 0 18 12" version="1.1" xmlns="http://www.w3.org/2000/svg" xmlns:xlink="http://www.w3.org/1999/xlink">
<title>behance</title>
<desc>Created using Figma</desc>
<g id="Canvas" transform="translate(2179 -187)">
<g id="behance">
<g id="Group">
<g id="Vector">
<use xlink:href="#path0_fill" transform="translate(-2179 187)" fill="#FFFFFF"/>
</g>
<g id="Vector">
<use xlink:href="#path1_fill" transform="translate(-2169.34 189.692)" fill="#FFFFFF"/>
</g>
<g id="Vector">
<use xlink:href="#path2_fill" transform="translate(-2167.45 187.467)" fill="#FFFFFF"/>
</g>
</g>
</g>
</g>
<defs>
<path id="path0_fill" d="M 7.61777 5.04144C 7.92932 4.5171 8.10722 3.89156 8.09694 3.22089C 8.06938 1.4262 6.68802 2.07289e-08 5.0279 2.07289e-08L 0.393101 2.07289e-08C 0.176016 2.07289e-08 0 0.190316 0 0.425037L 0 11.4456C 0 11.6803 0.176016 11.8706 0.393101 11.8706L 5.57036 11.8706C 7.49193 11.8706 9.0837 10.2053 9.09155 8.12767C 9.09638 6.85434 8.51238 5.72544 7.61777 5.04144ZM 2.03331 2.1985L 5.06748 2.1985C 5.61697 2.1985 6.06406 2.68187 6.06406 3.27604C 6.06406 3.87016 5.61701 4.35357 5.06748 4.35357L 2.03331 4.35357L 2.03331 2.1985ZM 5.61551 9.6721L 2.03331 9.6721L 2.03331 6.55208L 5.06748 6.55208L 5.61548 6.55208C 6.41102 6.55208 7.05827 7.25191 7.05827 8.11209C 7.05827 8.97227 6.41106 9.6721 5.61551 9.6721Z"/>
<path id="path1_fill" d="M 8.3397 4.6538C 8.3397 2.08766 6.46913 -5.70045e-08 4.16985 -5.70045e-08C 1.87057 -5.70045e-08 1.0065e-07 2.0877 1.0065e-07 4.6538C 1.0065e-07 7.2199 1.87061 9.30764 4.16985 9.30764C 5.56502 9.30764 6.86141 8.53432 7.63772 7.23896C 7.7345 7.07747 7.82241 6.90872 7.90042 6.73479C 7.95704 6.60854 7.87113 6.46161 7.74133 6.46127L 5.69157 6.45575C 5.64622 6.45562 5.60322 6.47566 5.57071 6.50984C 5.18366 6.91675 4.70913 7.1091 4.16985 7.1091C 3.15117 7.1091 2.29724 6.2853 2.08467 5.18709L 7.93164 5.18709C 8.15701 5.18709 8.3397 4.98956 8.3397 4.74588L 8.3397 4.6538ZM 4.16985 2.1985C 4.91593 2.1985 5.5735 2.64056 5.95577 3.30843L 2.38397 3.30843C 2.7662 2.64056 3.42381 2.1985 4.16985 2.1985Z"/>
<path id="path2_fill" d="M 4.01091 1.67888L 0.312455 1.67888C 0.139894 1.67888 -1.43785e-07 1.52762 -1.43785e-07 1.34104L -1.43785e-07 0.337839C -1.43785e-07 0.151259 0.139894 -9.58711e-08 0.312455 -9.58711e-08L 4.01091 -9.58711e-08C 4.18347 -9.58711e-08 4.32337 0.151259 4.32337 0.337839L 4.32337 1.34104C 4.32337 1.52766 4.18347 1.67888 4.01091 1.67888Z"/>
</defs>
</svg>
