<svg width="12" height="22" viewBox="0 0 12 22" version="1.1" xmlns="http://www.w3.org/2000/svg" xmlns:xlink="http://www.w3.org/1999/xlink">
<g id="Canvas" fill="none">
<g id="Vector">
<path d="M 0.589255 0L 10.5893 10.1032M 10 10.1032L 0 20.2065" transform="matrix(1 4.41627e-08 4.32647e-08 -1 1 21.1883)" stroke="white"/>
</g>
</g>
</svg>

